Relogio/simulation/qsim/Relogio.msim.vcd
$comment
	File created using the following command:
		vcd file Relogio.msim.vcd -direction
$end
$date
	Thu Sep 20 20:50:02 2018
$end
$version
	ModelSim Version 10.5b
$end
$timescale
	1ps
$end

$scope module toplevel_vhd_vec_tst $end
$var wire 1 ! clk $end
$var wire 1 " Q [3] $end
$var wire 1 # Q [2] $end
$var wire 1 $ Q [1] $end
$var wire 1 % Q [0] $end
$var wire 1 & Sel_Mux [2] $end
$var wire 1 ' Sel_Mux [1] $end
$var wire 1 ( Sel_Mux [0] $end
$var wire 1 ) Sel_Ula $end

$scope module i1 $end
$var wire 1 * gnd $end
$var wire 1 + vcc $end
$var wire 1 , unknown $end
$var wire 1 - devoe $end
$var wire 1 . devclrn $end
$var wire 1 / devpor $end
$var wire 1 0 ww_devoe $end
$var wire 1 1 ww_devclrn $end
$var wire 1 2 ww_devpor $end
$var wire 1 3 ww_clk $end
$var wire 1 4 ww_Sel_Ula $end
$var wire 1 5 ww_Sel_Mux [2] $end
$var wire 1 6 ww_Sel_Mux [1] $end
$var wire 1 7 ww_Sel_Mux [0] $end
$var wire 1 8 ww_Q [3] $end
$var wire 1 9 ww_Q [2] $end
$var wire 1 : ww_Q [1] $end
$var wire 1 ; ww_Q [0] $end
$var wire 1 < \clk~input_o\ $end
$var wire 1 = \Q[0]~output_o\ $end
$var wire 1 > \Q[1]~output_o\ $end
$var wire 1 ? \Q[2]~output_o\ $end
$var wire 1 @ \Q[3]~output_o\ $end
$var wire 1 A \Sel_Mux[1]~input_o\ $end
$var wire 1 B \Sel_Mux[0]~input_o\ $end
$var wire 1 C \Sel_Mux[2]~input_o\ $end
$var wire 1 D \P1|Mux3~0_combout\ $end
$var wire 1 E \P1|Mux2~0_combout\ $end
$var wire 1 F \Sel_Ula~input_o\ $end
$var wire 1 G \P2|Add0~1_cout\ $end
$var wire 1 H \P2|Add0~2_combout\ $end
$var wire 1 I \P1|Mux1~0_combout\ $end
$var wire 1 J \P2|Add0~3\ $end
$var wire 1 K \P2|Add0~4_combout\ $end
$var wire 1 L \P1|Mux0~0_combout\ $end
$var wire 1 M \P2|Add0~5\ $end
$var wire 1 N \P2|Add0~6_combout\ $end
$var wire 1 O \P1|ALT_INV_Mux3~0_combout\ $end
$upscope $end
$upscope $end
$enddefinitions $end
#0
$dumpvars
0!
0)
0*
1+
x,
1-
1.
1/
10
11
12
03
04
0<
1=
1>
0?
0@
0A
0B
0C
0D
0E
0F
0G
1H
0I
1J
0K
0L
0M
0N
1O
0&
0'
0(
05
06
07
08
09
1:
1;
0"
0#
1$
1%
$end
#10000
1!
13
1<
#20000
0!
03
0<
#30000
1!
13
1<
#40000
0!
03
0<
#50000
1!
13
1<
#60000
0!
03
0<
#70000
1!
13
1<
#80000
0!
03
0<
#90000
1!
13
1<
#100000
0!
03
0<
#110000
1!
13
1<
#120000
0!
03
0<
#130000
1!
13
1<
#140000
0!
03
0<
#150000
1!
13
1<
#160000
0!
03
0<
#170000
1!
13
1<
#180000
0!
1(
03
17
1B
0<
1E
1I
1K
0H
0>
1?
0:
19
0$
1#
#190000
1!
13
1<
#200000
0!
03
0<
#210000
1!
13
1<
#220000
0!
03
0<
#230000
1!
13
1<
#240000
0!
03
0<
#250000
1!
13
1<
#260000
0!
03
0<
#270000
1!
13
1<
#280000
0!
03
0<
#290000
1!
13
1<
#300000
0!
03
0<
#310000
1!
13
1<
#320000
0!
03
0<
#330000
1!
13
1<
#340000
0!
03
0<
#350000
1!
13
1<
#360000
0!
0(
1'
03
07
16
1A
0B
0<
0E
1H
1>
1:
1$
#370000
1!
13
1<
#380000
0!
03
0<
#390000
1!
13
1<
#400000
0!
03
0<
#410000
1!
13
1<
#420000
0!
03
0<
#430000
1!
13
1<
#440000
0!
1)
03
14
1F
0<
0H
0J
0K
1M
1N
0N
1K
1@
0?
0>
18
09
0:
1?
0@
0$
0#
1"
19
08
1#
0"
#450000
1!
13
1<
#460000
0!
03
0<
#470000
1!
13
1<
#480000
0!
03
0<
#490000
1!
13
1<
#500000
0!
03
0<
#510000
1!
13
1<
#520000
0!
03
0<
#530000
1!
13
1<
#540000
0!
1(
03
17
1B
0<
0I
1L
1N
0K
0?
1@
09
18
0#
1"
#550000
1!
13
1<
#560000
0!
03
0<
#570000
1!
13
1<
#580000
0!
03
0<
#590000
1!
13
1<
#600000
0!
0)
03
04
0F
0<
1H
1J
1K
0M
0N
1N
0K
0@
1?
1>
08
19
1:
0?
1@
1$
1#
0"
09
18
0#
1"
#610000
1!
13
1<
#620000
0!
03
0<
#630000
1!
13
1<
#640000
0!
03
0<
#650000
1!
1)
13
14
1F
1<
0H
0J
1K
0N
0K
1M
1N
0@
1?
0>
08
19
0:
0?
0$
1#
0"
09
1@
0#
18
1"
#660000
0!
03
0<
#670000
1!
13
1<
#680000
0!
03
0<
#690000
1!
13
1<
#700000
0!
0)
03
04
0F
0<
1H
1J
1K
0M
0N
1N
0K
0@
1?
1>
08
19
1:
0?
1@
1$
1#
0"
09
18
0#
1"
#710000
1!
13
1<
#720000
0!
0(
0'
1&
03
07
06
15
1C
0A
0B
0<
1D
1E
0L
0O
0N
0H
1G
1H
0=
0>
0@
0;
0:
08
0%
1>
0$
0"
1:
1$
#730000
1!
13
1<
#740000
0!
03
0<
#750000
1!
1)
13
14
1F
1<
0H
0J
1K
1N
0K
1M
0N
1@
1?
0>
18
19
0:
0?
0$
1#
1"
09
0@
0#
08
0"
#760000
0!
03
0<
#770000
1!
13
1<
#780000
0!
03
0<
#790000
1!
13
1<
#800000
0!
0)
03
04
0F
0<
1H
1J
1K
0M
1N
0N
0K
1@
1?
1>
18
19
1:
0?
0@
1$
1#
1"
09
08
0#
0"
#810000
1!
13
1<
#820000
0!
03
0<
#830000
1!
13
1<
#840000
0!
03
0<
#850000
1!
1)
13
14
1F
1<
0H
0J
1K
1N
0K
1M
0N
1@
1?
0>
18
19
0:
0?
0$
1#
1"
09
0@
0#
08
0"
#860000
0!
03
0<
#870000
1!
13
1<
#880000
0!
03
0<
#890000
1!
13
1<
#900000
0!
0)
1(
03
04
17
1B
0F
0<
1H
1J
1K
0M
1N
0D
1O
0G
0N
0K
0H
1@
1?
1>
1=
18
19
1:
0?
0@
1;
1$
1#
1"
09
08
1%
0>
0#
0"
0:
0$
#910000
1!
13
1<
#920000
0!
03
0<
#930000
1!
13
1<
#940000
0!
03
0<
#950000
1!
1)
13
14
1F
1<
1H
1K
1N
1@
1?
1>
18
19
1:
1$
1#
1"
#960000
0!
03
0<
#970000
1!
13
1<
#980000
0!
03
0<
#990000
1!
13
1<
